…
post_homicide
```

    ## # A tibble: 39,693 × 5
    ##    city_state      homicide_solved victim_age victim_sex victim_race
    ##    <chr>                     <dbl>      <dbl> <fct>      <fct>      
    ##  1 Albuquerque, NM               0         15 Female     White      
    ##  2 Albuquerque, NM               0         72 Female     White      
    ##  3 Albuquerque, NM               0         91 Female     White      
    ##  4 Albuquerque, NM               0         56 Male       White      
    ##  5 Albuquerque, NM               0         NA Male       White      
    ##  6 Albuquerque, NM               1         43 Female     White      
    ##  7 Albuquerque, NM               1         52 Male       White      
    ##  8 Albuquerque, NM               1         22 Female     White      
    ##  9 Albuquerque, NM               1         15 Male       Black      
    ## 10 Albuquerque, NM               1         25 Male       Black      
    ## # … with 39,683 more rows
…
``` r
child_bwt %>% 
  mutate(
    babysex = as.factor(babysex),
    frace = as.factor(frace),
    malform = as.factor(malform),
    mrace = as.factor(mrace)
  ) 
```

    ## # A tibble: 4,342 × 20
    ##    babysex bhead blength   bwt delwt fincome frace gaweeks malform menarche
    ##    <fct>   <dbl>   <dbl> <dbl> <dbl>   <dbl> <fct>   <dbl> <fct>      <dbl>
    ##  1 2          34      51  3629   177      35 1        39.9 0             13
    ##  2 1          34      48  3062   156      65 2        25.9 0             14
    ##  3 2          36      50  3345   148      85 1        39.9 0             12
    ##  4 1          34      52  3062   157      55 1        40   0             14
    ##  5 2          34      52  3374   156       5 1        41.6 0             13
    ##  6 1          33      52  3374   129      55 1        40.7 0             12
    ##  7 2          33      46  2523   126      96 2        40.3 0             14
    ##  8 2          33      49  2778   140       5 1        37.4 0             12
    ##  9 1          36      52  3515   146      85 1        40.3 0             11
    ## 10 1          33      50  3459   169      75 2        40.7 0             12
    ## # … with 4,332 more rows, and 10 more variables: mheight <dbl>, momage <dbl>,
    ## #   mrace <fct>, parity <dbl>, pnumlbw <dbl>, pnumsga <dbl>, ppbmi <dbl>,
    ## #   ppwt <dbl>, smoken <dbl>, wtgain <dbl>
…
## Linear Regression Model Assessing the Association Between `bwt` (baby’s birthweight, lbs) and `wtgain` (mother’s weight gain during pregnancy, lbs)

``` r
child_bwt %>% 
  mutate(
    bwt = bwt*0.0022046226
  )
```

    ## # A tibble: 4,342 × 20
    ##    babysex bhead blength   bwt delwt fincome frace gaweeks malform menarche
    ##      <dbl> <dbl>   <dbl> <dbl> <dbl>   <dbl> <dbl>   <dbl>   <dbl>    <dbl>
    ##  1       2    34      51  8.00   177      35     1    39.9       0       13
    ##  2       1    34      48  6.75   156      65     2    25.9       0       14
    ##  3       2    36      50  7.37   148      85     1    39.9       0       12
    ##  4       1    34      52  6.75   157      55     1    40         0       14
    ##  5       2    34      52  7.44   156       5     1    41.6       0       13
    ##  6       1    33      52  7.44   129      55     1    40.7       0       12
    ##  7       2    33      46  5.56   126      96     2    40.3       0       14
    ##  8       2    33      49  6.12   140       5     1    37.4       0       12
    ##  9       1    36      52  7.75   146      85     1    40.3       0       11
    ## 10       1    33      50  7.63   169      75     2    40.7       0       12
    ## # … with 4,332 more rows, and 10 more variables: mheight <dbl>, momage <dbl>,
    ## #   mrace <dbl>, parity <dbl>, pnumlbw <dbl>, pnumsga <dbl>, ppbmi <dbl>,
    ## #   ppwt <dbl>, smoken <dbl>, wtgain <dbl>
…
<img src="p8105_hw6_ei2262_files/figure-gfm/unnamed-chunk-8-1.png" width="90%" />

## Compare Linear Models

``` r
bwt_linear2 = lm(bwt ~ blength + gaweeks, data = child_bwt)

child_bwt %>% 
  mutate(
    bhead = bhead* 0.3937007874,
    blength = blength* 0.3937007874,
  )
```

    ## # A tibble: 4,342 × 20
    ##    babysex bhead blength   bwt delwt fincome frace gaweeks malform menarche
    ##      <dbl> <dbl>   <dbl> <dbl> <dbl>   <dbl> <dbl>   <dbl>   <dbl>    <dbl>
    ##  1       2  13.4    20.1  3629   177      35     1    39.9       0       13
    ##  2       1  13.4    18.9  3062   156      65     2    25.9       0       14
    ##  3       2  14.2    19.7  3345   148      85     1    39.9       0       12
    ##  4       1  13.4    20.5  3062   157      55     1    40         0       14
    ##  5       2  13.4    20.5  3374   156       5     1    41.6       0       13
    ##  6       1  13.0    20.5  3374   129      55     1    40.7       0       12
    ##  7       2  13.0    18.1  2523   126      96     2    40.3       0       14
    ##  8       2  13.0    19.3  2778   140       5     1    37.4       0       12
    ##  9       1  14.2    20.5  3515   146      85     1    40.3       0       11
    ## 10       1  13.0    19.7  3459   169      75     2    40.7       0       12
    ## # … with 4,332 more rows, and 10 more variables: mheight <dbl>, momage <dbl>,
    ## #   mrace <dbl>, parity <dbl>, pnumlbw <dbl>, pnumsga <dbl>, ppbmi <dbl>,
    ## #   ppwt <dbl>, smoken <dbl>, wtgain <dbl>
…
